﻿<?xml version="1.0" encoding="UTF-8"?>
<TestRun id="03400675-0fbf-41d5-97ac-335a25f651f6" name="ConnollyM@UKH119908 2013-07-05 09:43:56" runUser="UKCORPLAN\ConnollyM" xmlns="http://microsoft.com/schemas/VisualStudio/TeamTest/2006">
  <TestRunConfiguration name="Local Test Run" id="7bcca7a8-e190-423e-8c13-4d5374267d75">
    <Description>This is a default test run configuration for a local test run.</Description>
    <Deployment runDeploymentRoot="C:\Visual Studio Projects\WebUsageLoggingService\TestResults\ConnollyM_UKH119908 2013-07-05 09_43_56">
      <DeploymentItem filename="C:\Visual Studio Projects\WebUsageLoggingService\WebUsageLoggingService\bin\WebUsageLoggingService.dll" />
    </Deployment>
    <Plugins>
      <Plugin>Microsoft.VisualStudio.TestTools.HostAdapters.AspNetPlugin, Microsoft.VisualStudio.QualityTools.HostAdapters.ASPNETAgent</Plugin>
    </Plugins>
    <TestTypeSpecific />
  </TestRunConfiguration>
  <ResultSummary outcome="Failed">
    <Counters total="14" executed="14" passed="12" error="0" failed="2" timeout="0" aborted="0" inconclusive="0" passedButRunAborted="0" notRunnable="0" notExecuted="0" disconnected="0" warning="0" completed="0" inProgress="0" pending="0" />
  </ResultSummary>
  <Times creation="2013-07-05T09:43:56.3989210+01:00" queuing="2013-07-05T09:43:59.2379210+01:00" start="2013-07-05T09:43:59.3309210+01:00" finish="2013-07-05T09:44:03.6499210+01:00" />
  <TestDefinitions>
    <UnitTest name="OmnitureInvalidSystemParameter" storage="c:\visual studio projects\webusageloggingservice\testproject1\bin\debug\testproject1.dll" id="b3be81f3-5e38-1d79-a343-2a8766c85172">
      <Css projectStructure="" iteration="" />
      <Owners>
        <Owner name="" />
      </Owners>
      <Execution id="b74797e2-6308-40d0-a890-38353f51b92f" />
      <TestMethod codeBase="C:\Visual Studio Projects\WebUsageLoggingService\TestProject1\bin\Debug\TestProject1.dll" adapterTypeName="Microsoft.VisualStudio.TestTools.TestTypes.Unit.UnitTestAdapter, Microsoft.VisualStudio.QualityTools.Tips.UnitTest.Adapter, Version=9.0.0.0, Culture=neutral, PublicKeyToken=b03f5f7f11d50a3a" className="TestProject1.UsageLoggingTest, TestProject1" name="OmnitureInvalidSystemParameter" />
      <AspNet webSiteUrl="http://localhost/BlankPageForUnitTests.aspx">
        <Host pathToWebApp="C:\Visual Studio Projects\WebUsageLoggingService\WebUsageLoggingService" webAppRoot="/" />
      </AspNet>
    </UnitTest>
    <UnitTest name="OmnitureNullData" storage="c:\visual studio projects\webusageloggingservice\testproject1\bin\debug\testproject1.dll" id="75de1e10-9692-48a0-008c-aefbf2d00ee1">
      <Css projectStructure="" iteration="" />
      <Owners>
        <Owner name="" />
      </Owners>
      <Execution id="19fa3f24-eabf-421b-ba46-ffaebbfb8c2c" />
      <TestMethod codeBase="C:\Visual Studio Projects\WebUsageLoggingService\TestProject1\bin\Debug\TestProject1.dll" adapterTypeName="Microsoft.VisualStudio.TestTools.TestTypes.Unit.UnitTestAdapter, Microsoft.VisualStudio.QualityTools.Tips.UnitTest.Adapter, Version=9.0.0.0, Culture=neutral, PublicKeyToken=b03f5f7f11d50a3a" className="TestProject1.UsageLoggingTest, TestProject1" name="OmnitureNullData" />
      <AspNet webSiteUrl="http://localhost/BlankPageForUnitTests.aspx">
        <Host pathToWebApp="C:\Visual Studio Projects\WebUsageLoggingService\WebUsageLoggingService" webAppRoot="/" />
      </AspNet>
    </UnitTest>
    <UnitTest name="AvailableServicesAndDimValsAreEmptyLists" storage="c:\visual studio projects\webusageloggingservice\testproject1\bin\debug\testproject1.dll" id="6a36dce5-5023-eddd-5981-1f3b89106260">
      <Css projectStructure="" iteration="" />
      <Owners>
        <Owner name="" />
      </Owners>
      <Execution id="00319961-eca1-4b5e-8677-d3d4590b545a" />
      <TestMethod codeBase="C:\Visual Studio Projects\WebUsageLoggingService\TestProject1\bin\Debug\TestProject1.dll" adapterTypeName="Microsoft.VisualStudio.TestTools.TestTypes.Unit.UnitTestAdapter, Microsoft.VisualStudio.QualityTools.Tips.UnitTest.Adapter, Version=9.0.0.0, Culture=neutral, PublicKeyToken=b03f5f7f11d50a3a" className="TestProject1.UsageLoggingTest, TestProject1" name="AvailableServicesAndDimValsAreEmptyLists" />
      <AspNet webSiteUrl="http://localhost/BlankPageForUnitTests.aspx">
        <Host pathToWebApp="C:\Visual Studio Projects\WebUsageLoggingService\WebUsageLoggingService" webAppRoot="/" />
      </AspNet>
    </UnitTest>
    <UnitTest name="UserAndContractBothNull" storage="c:\visual studio projects\webusageloggingservice\testproject1\bin\debug\testproject1.dll" id="772640bb-de7a-e05c-27a1-54f3844053d5">
      <Css projectStructure="" iteration="" />
      <Owners>
        <Owner name="" />
      </Owners>
      <Execution id="abf2e6a6-6a41-4413-a7c9-fc18c8aaa085" />
      <TestMethod codeBase="C:\Visual Studio Projects\WebUsageLoggingService\TestProject1\bin\Debug\TestProject1.dll" adapterTypeName="Microsoft.VisualStudio.TestTools.TestTypes.Unit.UnitTestAdapter, Microsoft.VisualStudio.QualityTools.Tips.UnitTest.Adapter, Version=9.0.0.0, Culture=neutral, PublicKeyToken=b03f5f7f11d50a3a" className="TestProject1.UsageLoggingTest, TestProject1" name="UserAndContractBothNull" />
      <AspNet webSiteUrl="http://localhost:4840/BlankPageForUnitTests.aspx">
        <Host pathToWebApp="C:\Visual Studio Projects\WebUsageLoggingService\WebUsageLoggingService" webAppRoot="/" />
      </AspNet>
    </UnitTest>
    <UnitTest name="OmnitureBlankData" storage="c:\visual studio projects\webusageloggingservice\testproject1\bin\debug\testproject1.dll" id="8c0d93d3-dccf-2e47-f642-e9ef853561ed">
      <Css projectStructure="" iteration="" />
      <Owners>
        <Owner name="" />
      </Owners>
      <Execution id="7b09b6be-46d3-4455-8df0-c7f58db6c9c4" />
      <TestMethod codeBase="C:\Visual Studio Projects\WebUsageLoggingService\TestProject1\bin\Debug\TestProject1.dll" adapterTypeName="Microsoft.VisualStudio.TestTools.TestTypes.Unit.UnitTestAdapter, Microsoft.VisualStudio.QualityTools.Tips.UnitTest.Adapter, Version=9.0.0.0, Culture=neutral, PublicKeyToken=b03f5f7f11d50a3a" className="TestProject1.UsageLoggingTest, TestProject1" name="OmnitureBlankData" />
      <AspNet webSiteUrl="http://localhost/BlankPageForUnitTests.aspx">
        <Host pathToWebApp="C:\Visual Studio Projects\WebUsageLoggingService\WebUsageLoggingService" webAppRoot="/" />
      </AspNet>
    </UnitTest>
    <UnitTest name="InvalidIPAddress" storage="c:\visual studio projects\webusageloggingservice\testproject1\bin\debug\testproject1.dll" id="f028ff30-8520-bf02-e1eb-df86b10386c2">
      <Css projectStructure="" iteration="" />
      <Owners>
        <Owner name="" />
      </Owners>
      <Execution id="99fb72c8-b6d1-4dd5-8447-f76dd9e583e3" />
      <TestMethod codeBase="C:\Visual Studio Projects\WebUsageLoggingService\TestProject1\bin\Debug\TestProject1.dll" adapterTypeName="Microsoft.VisualStudio.TestTools.TestTypes.Unit.UnitTestAdapter, Microsoft.VisualStudio.QualityTools.Tips.UnitTest.Adapter, Version=9.0.0.0, Culture=neutral, PublicKeyToken=b03f5f7f11d50a3a" className="TestProject1.UsageLoggingTest, TestProject1" name="InvalidIPAddress" />
      <AspNet webSiteUrl="http://localhost/BlankPageForUnitTests.aspx">
        <Host pathToWebApp="C:\Visual Studio Projects\WebUsageLoggingService\WebUsageLoggingService" webAppRoot="/" />
      </AspNet>
    </UnitTest>
    <UnitTest name="OmnitureNoSystemParameter" storage="c:\visual studio projects\webusageloggingservice\testproject1\bin\debug\testproject1.dll" id="e23affe3-d742-65d0-fc14-3f68513a650c">
      <Css projectStructure="" iteration="" />
      <Owners>
        <Owner name="" />
      </Owners>
      <Execution id="61220bc4-38f3-4576-a72f-5479a0d64e27" />
      <TestMethod codeBase="C:\Visual Studio Projects\WebUsageLoggingService\TestProject1\bin\Debug\TestProject1.dll" adapterTypeName="Microsoft.VisualStudio.TestTools.TestTypes.Unit.UnitTestAdapter, Microsoft.VisualStudio.QualityTools.Tips.UnitTest.Adapter, Version=9.0.0.0, Culture=neutral, PublicKeyToken=b03f5f7f11d50a3a" className="TestProject1.UsageLoggingTest, TestProject1" name="OmnitureNoSystemParameter" />
      <AspNet webSiteUrl="http://localhost/BlankPageForUnitTests.aspx">
        <Host pathToWebApp="C:\Visual Studio Projects\WebUsageLoggingService\WebUsageLoggingService" webAppRoot="/" />
      </AspNet>
    </UnitTest>
    <UnitTest name="ArbitraryData" storage="c:\visual studio projects\webusageloggingservice\testproject1\bin\debug\testproject1.dll" id="ffba7d14-d355-4d04-d419-65968e8188c9">
      <Css projectStructure="" iteration="" />
      <Owners>
        <Owner name="" />
      </Owners>
      <Execution id="d7adb370-202e-4a19-96f2-f8f038181156" />
      <TestMethod codeBase="C:\Visual Studio Projects\WebUsageLoggingService\TestProject1\bin\Debug\TestProject1.dll" adapterTypeName="Microsoft.VisualStudio.TestTools.TestTypes.Unit.UnitTestAdapter, Microsoft.VisualStudio.QualityTools.Tips.UnitTest.Adapter, Version=9.0.0.0, Culture=neutral, PublicKeyToken=b03f5f7f11d50a3a" className="TestProject1.UsageLoggingTest, TestProject1" name="ArbitraryData" />
      <AspNet webSiteUrl="http://localhost/BlankPageForUnitTests.aspx">
        <Host pathToWebApp="C:\Visual Studio Projects\WebUsageLoggingService\WebUsageLoggingService" webAppRoot="/" />
      </AspNet>
    </UnitTest>
    <UnitTest name="OmnitureExpectedData" storage="c:\visual studio projects\webusageloggingservice\testproject1\bin\debug\testproject1.dll" id="65564f19-0d26-bcc4-1609-e681e6d5f6da">
      <Css projectStructure="" iteration="" />
      <Owners>
        <Owner name="" />
      </Owners>
      <Execution id="5f7d0937-3f2e-43ab-906d-59286d287a09" />
      <TestMethod codeBase="C:\Visual Studio Projects\WebUsageLoggingService\TestProject1\bin\Debug\TestProject1.dll" adapterTypeName="Microsoft.VisualStudio.TestTools.TestTypes.Unit.UnitTestAdapter, Microsoft.VisualStudio.QualityTools.Tips.UnitTest.Adapter, Version=9.0.0.0, Culture=neutral, PublicKeyToken=b03f5f7f11d50a3a" className="TestProject1.UsageLoggingTest, TestProject1" name="OmnitureExpectedData" />
      <AspNet webSiteUrl="http://localhost/BlankPageForUnitTests.aspx">
        <Host pathToWebApp="C:\Visual Studio Projects\WebUsageLoggingService\WebUsageLoggingService" webAppRoot="/" />
      </AspNet>
    </UnitTest>
    <UnitTest name="CalculationDetailContainsInvalidXml" storage="c:\visual studio projects\webusageloggingservice\testproject1\bin\debug\testproject1.dll" id="c337bfdb-6a87-6d2f-4226-1b9753e8410e">
      <Css projectStructure="" iteration="" />
      <Owners>
        <Owner name="" />
      </Owners>
      <Execution id="c5e0a88a-0346-4de1-b633-7c669f46d8cb" />
      <TestMethod codeBase="C:\Visual Studio Projects\WebUsageLoggingService\TestProject1\bin\Debug\TestProject1.dll" adapterTypeName="Microsoft.VisualStudio.TestTools.TestTypes.Unit.UnitTestAdapter, Microsoft.VisualStudio.QualityTools.Tips.UnitTest.Adapter, Version=9.0.0.0, Culture=neutral, PublicKeyToken=b03f5f7f11d50a3a" className="TestProject1.UsageLoggingTest, TestProject1" name="CalculationDetailContainsInvalidXml" />
      <AspNet webSiteUrl="http://localhost/BlankPageForUnitTests.aspx">
        <Host pathToWebApp="C:\Visual Studio Projects\WebUsageLoggingService\WebUsageLoggingService" webAppRoot="/" />
      </AspNet>
    </UnitTest>
    <UnitTest name="NullStringsNotRecorded" storage="c:\visual studio projects\webusageloggingservice\testproject1\bin\debug\testproject1.dll" id="3d2bde7d-595a-512d-6e72-465ec7fe5b67">
      <Css projectStructure="" iteration="" />
      <Owners>
        <Owner name="" />
      </Owners>
      <Execution id="99ac0d13-b6a4-480a-a63a-5611d206ea28" />
      <TestMethod codeBase="C:\Visual Studio Projects\WebUsageLoggingService\TestProject1\bin\Debug\TestProject1.dll" adapterTypeName="Microsoft.VisualStudio.TestTools.TestTypes.Unit.UnitTestAdapter, Microsoft.VisualStudio.QualityTools.Tips.UnitTest.Adapter, Version=9.0.0.0, Culture=neutral, PublicKeyToken=b03f5f7f11d50a3a" className="TestProject1.UsageLoggingTest, TestProject1" name="NullStringsNotRecorded" />
      <AspNet webSiteUrl="http://localhost:4840/BlankPageForUnitTests.aspx">
        <Host pathToWebApp="C:\Visual Studio Projects\WebUsageLoggingService\WebUsageLoggingService" webAppRoot="/" />
      </AspNet>
    </UnitTest>
    <UnitTest name="BigIntDimVals" storage="c:\visual studio projects\webusageloggingservice\testproject1\bin\debug\testproject1.dll" id="e0bcd8d3-6112-da7c-8d2b-6ad76efb92ac">
      <Css projectStructure="" iteration="" />
      <Owners>
        <Owner name="" />
      </Owners>
      <Execution id="b37c5183-2c3a-465e-9ffb-84474b5f3d2b" />
      <TestMethod codeBase="C:\Visual Studio Projects\WebUsageLoggingService\TestProject1\bin\Debug\TestProject1.dll" adapterTypeName="Microsoft.VisualStudio.TestTools.TestTypes.Unit.UnitTestAdapter, Microsoft.VisualStudio.QualityTools.Tips.UnitTest.Adapter, Version=9.0.0.0, Culture=neutral, PublicKeyToken=b03f5f7f11d50a3a" className="TestProject1.UsageLoggingTest, TestProject1" name="BigIntDimVals" />
      <AspNet webSiteUrl="http://localhost/BlankPageForUnitTests.aspx">
        <Host pathToWebApp="C:\Visual Studio Projects\WebUsageLoggingService\WebUsageLoggingService" webAppRoot="/" />
      </AspNet>
    </UnitTest>
    <UnitTest name="OversizedStrings" storage="c:\visual studio projects\webusageloggingservice\testproject1\bin\debug\testproject1.dll" id="d577c488-d3dc-20e1-5056-c3f26e7ef527">
      <Css projectStructure="" iteration="" />
      <Owners>
        <Owner name="" />
      </Owners>
      <Execution id="41202e78-d2d0-4fb4-81a0-a4be7ddbd822" />
      <TestMethod codeBase="C:\Visual Studio Projects\WebUsageLoggingService\TestProject1\bin\Debug\TestProject1.dll" adapterTypeName="Microsoft.VisualStudio.TestTools.TestTypes.Unit.UnitTestAdapter, Microsoft.VisualStudio.QualityTools.Tips.UnitTest.Adapter, Version=9.0.0.0, Culture=neutral, PublicKeyToken=b03f5f7f11d50a3a" className="TestProject1.UsageLoggingTest, TestProject1" name="OversizedStrings" />
      <AspNet webSiteUrl="http://localhost/BlankPageForUnitTests.aspx">
        <Host pathToWebApp="C:\Visual Studio Projects\WebUsageLoggingService\WebUsageLoggingService" webAppRoot="/" />
      </AspNet>
    </UnitTest>
    <UnitTest name="AllParamsPassed" storage="c:\visual studio projects\webusageloggingservice\testproject1\bin\debug\testproject1.dll" id="b64ec1ef-b2cc-a2a5-c876-feee579a3339">
      <Css projectStructure="" iteration="" />
      <Owners>
        <Owner name="" />
      </Owners>
      <Execution id="b7fa9a4c-b297-4ba7-8d57-1460ad712a93" />
      <TestMethod codeBase="C:\Visual Studio Projects\WebUsageLoggingService\TestProject1\bin\Debug\TestProject1.dll" adapterTypeName="Microsoft.VisualStudio.TestTools.TestTypes.Unit.UnitTestAdapter, Microsoft.VisualStudio.QualityTools.Tips.UnitTest.Adapter, Version=9.0.0.0, Culture=neutral, PublicKeyToken=b03f5f7f11d50a3a" className="TestProject1.UsageLoggingTest, TestProject1" name="AllParamsPassed" />
      <AspNet webSiteUrl="http://localhost:4840/BlankPageForUnitTests.aspx">
        <Host pathToWebApp="C:\Visual Studio Projects\WebUsageLoggingService\WebUsageLoggingService" webAppRoot="/" />
      </AspNet>
    </UnitTest>
  </TestDefinitions>
  <TestLists>
    <TestList name="Results Not in a List" id="8c84fa94-04c1-424b-9868-57a2d4851a1d" />
    <TestList name="All Loaded Results" id="19431567-8539-422a-85d7-44ee4e166bda" />
  </TestLists>
  <TestEntries>
    <TestEntry testId="3d2bde7d-595a-512d-6e72-465ec7fe5b67" executionId="99ac0d13-b6a4-480a-a63a-5611d206ea28" testListId="8c84fa94-04c1-424b-9868-57a2d4851a1d" />
    <TestEntry testId="65564f19-0d26-bcc4-1609-e681e6d5f6da" executionId="5f7d0937-3f2e-43ab-906d-59286d287a09" testListId="8c84fa94-04c1-424b-9868-57a2d4851a1d" />
    <TestEntry testId="6a36dce5-5023-eddd-5981-1f3b89106260" executionId="00319961-eca1-4b5e-8677-d3d4590b545a" testListId="8c84fa94-04c1-424b-9868-57a2d4851a1d" />
    <TestEntry testId="75de1e10-9692-48a0-008c-aefbf2d00ee1" executionId="19fa3f24-eabf-421b-ba46-ffaebbfb8c2c" testListId="8c84fa94-04c1-424b-9868-57a2d4851a1d" />
    <TestEntry testId="772640bb-de7a-e05c-27a1-54f3844053d5" executionId="abf2e6a6-6a41-4413-a7c9-fc18c8aaa085" testListId="8c84fa94-04c1-424b-9868-57a2d4851a1d" />
    <TestEntry testId="8c0d93d3-dccf-2e47-f642-e9ef853561ed" executionId="7b09b6be-46d3-4455-8df0-c7f58db6c9c4" testListId="8c84fa94-04c1-424b-9868-57a2d4851a1d" />
    <TestEntry testId="b3be81f3-5e38-1d79-a343-2a8766c85172" executionId="b74797e2-6308-40d0-a890-38353f51b92f" testListId="8c84fa94-04c1-424b-9868-57a2d4851a1d" />
    <TestEntry testId="b64ec1ef-b2cc-a2a5-c876-feee579a3339" executionId="b7fa9a4c-b297-4ba7-8d57-1460ad712a93" testListId="8c84fa94-04c1-424b-9868-57a2d4851a1d" />
    <TestEntry testId="c337bfdb-6a87-6d2f-4226-1b9753e8410e" executionId="c5e0a88a-0346-4de1-b633-7c669f46d8cb" testListId="8c84fa94-04c1-424b-9868-57a2d4851a1d" />
    <TestEntry testId="d577c488-d3dc-20e1-5056-c3f26e7ef527" executionId="41202e78-d2d0-4fb4-81a0-a4be7ddbd822" testListId="8c84fa94-04c1-424b-9868-57a2d4851a1d" />
    <TestEntry testId="e0bcd8d3-6112-da7c-8d2b-6ad76efb92ac" executionId="b37c5183-2c3a-465e-9ffb-84474b5f3d2b" testListId="8c84fa94-04c1-424b-9868-57a2d4851a1d" />
    <TestEntry testId="e23affe3-d742-65d0-fc14-3f68513a650c" executionId="61220bc4-38f3-4576-a72f-5479a0d64e27" testListId="8c84fa94-04c1-424b-9868-57a2d4851a1d" />
    <TestEntry testId="f028ff30-8520-bf02-e1eb-df86b10386c2" executionId="99fb72c8-b6d1-4dd5-8447-f76dd9e583e3" testListId="8c84fa94-04c1-424b-9868-57a2d4851a1d" />
    <TestEntry testId="ffba7d14-d355-4d04-d419-65968e8188c9" executionId="d7adb370-202e-4a19-96f2-f8f038181156" testListId="8c84fa94-04c1-424b-9868-57a2d4851a1d" />
  </TestEntries>
  <Results>
    <UnitTestResult executionId="99ac0d13-b6a4-480a-a63a-5611d206ea28" testId="3d2bde7d-595a-512d-6e72-465ec7fe5b67" testName="NullStringsNotRecorded" computerName="UKH119908" duration="00:00:00.0311343" startTime="2013-07-05T09:44:00.5399210+01:00" endTime="2013-07-05T09:44:02.8349210+01:00" testType="13cdc9d9-ddb5-4fa4-a97d-d965ccfc6d4b" outcome="Passed" testListId="8c84fa94-04c1-424b-9868-57a2d4851a1d">
      <Output>
      </Output>
    </UnitTestResult>
    <UnitTestResult executionId="5f7d0937-3f2e-43ab-906d-59286d287a09" testId="65564f19-0d26-bcc4-1609-e681e6d5f6da" testName="OmnitureExpectedData" computerName="UKH119908" duration="00:00:00.0415529" startTime="2013-07-05T09:44:02.8439210+01:00" endTime="2013-07-05T09:44:02.9309210+01:00" testType="13cdc9d9-ddb5-4fa4-a97d-d965ccfc6d4b" outcome="Passed" testListId="8c84fa94-04c1-424b-9868-57a2d4851a1d">
      <Output>
      </Output>
    </UnitTestResult>
    <UnitTestResult executionId="00319961-eca1-4b5e-8677-d3d4590b545a" testId="6a36dce5-5023-eddd-5981-1f3b89106260" testName="AvailableServicesAndDimValsAreEmptyLists" computerName="UKH119908" duration="00:00:00.0070539" startTime="2013-07-05T09:44:02.9349210+01:00" endTime="2013-07-05T09:44:03.0139210+01:00" testType="13cdc9d9-ddb5-4fa4-a97d-d965ccfc6d4b" outcome="Passed" testListId="8c84fa94-04c1-424b-9868-57a2d4851a1d">
      <Output>
      </Output>
    </UnitTestResult>
    <UnitTestResult executionId="19fa3f24-eabf-421b-ba46-ffaebbfb8c2c" testId="75de1e10-9692-48a0-008c-aefbf2d00ee1" testName="OmnitureNullData" computerName="UKH119908" duration="00:00:00.0425391" startTime="2013-07-05T09:44:03.0169210+01:00" endTime="2013-07-05T09:44:03.0979210+01:00" testType="13cdc9d9-ddb5-4fa4-a97d-d965ccfc6d4b" outcome="Passed" testListId="8c84fa94-04c1-424b-9868-57a2d4851a1d">
      <Output>
      </Output>
    </UnitTestResult>
    <UnitTestResult executionId="abf2e6a6-6a41-4413-a7c9-fc18c8aaa085" testId="772640bb-de7a-e05c-27a1-54f3844053d5" testName="UserAndContractBothNull" computerName="UKH119908" duration="00:00:00.0174901" startTime="2013-07-05T09:44:03.1059210+01:00" endTime="2013-07-05T09:44:03.1609210+01:00" testType="13cdc9d9-ddb5-4fa4-a97d-d965ccfc6d4b" outcome="Passed" testListId="8c84fa94-04c1-424b-9868-57a2d4851a1d">
      <Output>
      </Output>
    </UnitTestResult>
    <UnitTestResult executionId="7b09b6be-46d3-4455-8df0-c7f58db6c9c4" testId="8c0d93d3-dccf-2e47-f642-e9ef853561ed" testName="OmnitureBlankData" computerName="UKH119908" duration="00:00:00.0088400" startTime="2013-07-05T09:44:03.1629210+01:00" endTime="2013-07-05T09:44:03.2089210+01:00" testType="13cdc9d9-ddb5-4fa4-a97d-d965ccfc6d4b" outcome="Failed" testListId="8c84fa94-04c1-424b-9868-57a2d4851a1d">
      <Output>
        <ErrorInfo>
          <Message>Assert.AreEqual failed. Expected:&lt;CHK_OmnitureData&gt;. Actual:&lt;Usage logged successfully&gt;. </Message>
          <StackTrace>   at TestProject1.UsageLoggingTest.OmnitureBlankData() in C:\Visual Studio Projects\WebUsageLoggingService\TestProject1\UsageLoggingTest.cs:line 471
</StackTrace>
        </ErrorInfo>
      </Output>
    </UnitTestResult>
    <UnitTestResult executionId="b74797e2-6308-40d0-a890-38353f51b92f" testId="b3be81f3-5e38-1d79-a343-2a8766c85172" testName="OmnitureInvalidSystemParameter" computerName="UKH119908" duration="00:00:00.0172878" startTime="2013-07-05T09:44:03.2139210+01:00" endTime="2013-07-05T09:44:03.2689210+01:00" testType="13cdc9d9-ddb5-4fa4-a97d-d965ccfc6d4b" outcome="Passed" testListId="8c84fa94-04c1-424b-9868-57a2d4851a1d">
      <Output>
      </Output>
    </UnitTestResult>
    <UnitTestResult executionId="b7fa9a4c-b297-4ba7-8d57-1460ad712a93" testId="b64ec1ef-b2cc-a2a5-c876-feee579a3339" testName="AllParamsPassed" computerName="UKH119908" duration="00:00:00.0070079" startTime="2013-07-05T09:44:03.2789210+01:00" endTime="2013-07-05T09:44:03.3209210+01:00" testType="13cdc9d9-ddb5-4fa4-a97d-d965ccfc6d4b" outcome="Passed" testListId="8c84fa94-04c1-424b-9868-57a2d4851a1d">
      <Output>
      </Output>
    </UnitTestResult>
    <UnitTestResult executionId="c5e0a88a-0346-4de1-b633-7c669f46d8cb" testId="c337bfdb-6a87-6d2f-4226-1b9753e8410e" testName="CalculationDetailContainsInvalidXml" computerName="UKH119908" duration="00:00:00.0199827" startTime="2013-07-05T09:44:03.3249210+01:00" endTime="2013-07-05T09:44:03.3789210+01:00" testType="13cdc9d9-ddb5-4fa4-a97d-d965ccfc6d4b" outcome="Passed" testListId="8c84fa94-04c1-424b-9868-57a2d4851a1d">
      <Output>
      </Output>
    </UnitTestResult>
    <UnitTestResult executionId="41202e78-d2d0-4fb4-81a0-a4be7ddbd822" testId="d577c488-d3dc-20e1-5056-c3f26e7ef527" testName="OversizedStrings" computerName="UKH119908" duration="00:00:00.0059704" startTime="2013-07-05T09:44:03.3829210+01:00" endTime="2013-07-05T09:44:03.4219210+01:00" testType="13cdc9d9-ddb5-4fa4-a97d-d965ccfc6d4b" outcome="Passed" testListId="8c84fa94-04c1-424b-9868-57a2d4851a1d">
      <Output>
      </Output>
    </UnitTestResult>
    <UnitTestResult executionId="b37c5183-2c3a-465e-9ffb-84474b5f3d2b" testId="e0bcd8d3-6112-da7c-8d2b-6ad76efb92ac" testName="BigIntDimVals" computerName="UKH119908" duration="00:00:00.0057651" startTime="2013-07-05T09:44:03.4249210+01:00" endTime="2013-07-05T09:44:03.4629210+01:00" testType="13cdc9d9-ddb5-4fa4-a97d-d965ccfc6d4b" outcome="Passed" testListId="8c84fa94-04c1-424b-9868-57a2d4851a1d">
      <Output>
      </Output>
    </UnitTestResult>
    <UnitTestResult executionId="61220bc4-38f3-4576-a72f-5479a0d64e27" testId="e23affe3-d742-65d0-fc14-3f68513a650c" testName="OmnitureNoSystemParameter" computerName="UKH119908" duration="00:00:00.0196016" startTime="2013-07-05T09:44:03.4669210+01:00" endTime="2013-07-05T09:44:03.5199210+01:00" testType="13cdc9d9-ddb5-4fa4-a97d-d965ccfc6d4b" outcome="Passed" testListId="8c84fa94-04c1-424b-9868-57a2d4851a1d">
      <Output>
      </Output>
    </UnitTestResult>
    <UnitTestResult executionId="99fb72c8-b6d1-4dd5-8447-f76dd9e583e3" testId="f028ff30-8520-bf02-e1eb-df86b10386c2" testName="InvalidIPAddress" computerName="UKH119908" duration="00:00:00.0066110" startTime="2013-07-05T09:44:03.5239210+01:00" endTime="2013-07-05T09:44:03.5659210+01:00" testType="13cdc9d9-ddb5-4fa4-a97d-d965ccfc6d4b" outcome="Failed" testListId="8c84fa94-04c1-424b-9868-57a2d4851a1d">
      <Output>
        <ErrorInfo>
          <Message>Assert.AreEqual failed. Expected:&lt;The INSERT statement conflicted with the CHECK constraint "CHK_IpAddress_is_valid"&gt;. Actual:&lt;Usage logged successfully&gt;. </Message>
          <StackTrace>   at TestProject1.UsageLoggingTest.InvalidIPAddress() in C:\Visual Studio Projects\WebUsageLoggingService\TestProject1\UsageLoggingTest.cs:line 326
</StackTrace>
        </ErrorInfo>
      </Output>
    </UnitTestResult>
    <UnitTestResult executionId="d7adb370-202e-4a19-96f2-f8f038181156" testId="ffba7d14-d355-4d04-d419-65968e8188c9" testName="ArbitraryData" computerName="UKH119908" duration="00:00:00.0055671" startTime="2013-07-05T09:44:03.5689210+01:00" endTime="2013-07-05T09:44:03.6069210+01:00" testType="13cdc9d9-ddb5-4fa4-a97d-d965ccfc6d4b" outcome="Passed" testListId="8c84fa94-04c1-424b-9868-57a2d4851a1d">
      <Output>
      </Output>
    </UnitTestResult>
  </Results>
</TestRun>